POlygons
…
<img src="slides_files/figure-html/unnamed-chunk-46-1.png" width="504" style="display: block; margin: auto;" />

---

```r
fanRoads %>%
  filter( st_intersects( fanRoads, target, 
                         sparse = FALSE ) == TRUE ) %>%
  as_data_frame() %>% select( `Street Name` = FullName ) %>%
  arrange( `Street Name`) %>% unique() 
```

```
## # A tibble: 39 x 1
##    `Street Name` 
##    <chr>         
##  1 Allison St    
##  2 Birch St      
##  3 Boyd St       
##  4 Floyd Ave     
##  5 Grove Ave     
##  6 Hanover Ave   
##  7 Kensington Ave
##  8 Lombardy Pl   
##  9 Madumbie Lane 
## 10 Monument Ave  
## # … with 29 more rows
```
…
