R Markdown
…
--

.pull-right[

```r
tibble( X = 1:1000, Y = 1:1000, Z = 1:1000)
```

```
## # A tibble: 1,000 × 3
##        X     Y     Z
##    <int> <int> <int>
##  1     1     1     1
##  2     2     2     2
##  3     3     3     3
##  4     4     4     4
##  5     5     5     5
##  6     6     6     6
##  7     7     7     7
##  8     8     8     8
##  9     9     9     9
## 10    10    10    10
## # … with 990 more rows
```
…
---

# Adding New Data Columns

Adding new columns always post-pends them onto the right side of the tibble.

```r
samples$ID <- 1:39
samples
```

```
## # A tibble: 39 × 4
##    Stratum Longitude Latitude    ID
##    <chr>       <dbl>    <dbl> <int>
##  1 88          -114.     29.3     1
##  2 9           -114.     29.0     2
##  3 84          -114.     29.0     3
##  4 175         -113.     28.7     4
##  5 177         -114.     28.7     5
##  6 173         -113.     28.4     6
##  7 171         -113.     28.2     7
##  8 89          -113.     28.0     8
##  9 159         -113.     27.5     9
## 10 SFr         -113.     27.4    10
## # … with 29 more rows
```

---

# Changing Individual Values

.pull-left[
By column variable name 

```r
samples$ID[2] <- 42
samples
```

```
## # A tibble: 39 × 4
##    Stratum Longitude Latitude    ID
##    <chr>       <dbl>    <dbl> <dbl>
##  1 88          -114.     29.3     1
##  2 9           -114.     29.0    42
##  3 84          -114.     29.0     3
##  4 175         -113.     28.7     4
##  5 177         -114.     28.7     5
##  6 173         -113.     28.4     6
##  7 171         -113.     28.2     7
##  8 89          -113.     28.0     8
##  9 159         -113.     27.5     9
## 10 SFr         -113.     27.4    10
## # … with 29 more rows
```

]

--

.pull-right[
By index coordinate.

```r
samples[2,4] <- 24
samples
```

```
## # A tibble: 39 × 4
##    Stratum Longitude Latitude    ID
##    <chr>       <dbl>    <dbl> <dbl>
##  1 88          -114.     29.3     1
##  2 9           -114.     29.0    24
##  3 84          -114.     29.0     3
##  4 175         -113.     28.7     4
##  5 177         -114.     28.7     5
##  6 173         -113.     28.4     6
##  7 171         -113.     28.2     7
##  8 89          -113.     28.0     8
##  9 159         -113.     27.5     9
## 10 SFr         -113.     27.4    10
## # … with 29 more rows
```

]

---

# Forced Coercion

```r
samples$ID[2] <- "Bob"
samples
```

```
## # A tibble: 39 × 4
##    Stratum Longitude Latitude ID   
##    <chr>       <dbl>    <dbl> <chr>
##  1 88          -114.     29.3 1    
##  2 9           -114.     29.0 Bob  
##  3 84          -114.     29.0 3    
##  4 175         -113.     28.7 4    
##  5 177         -114.     28.7 5    
##  6 173         -113.     28.4 6    
##  7 171         -113.     28.2 7    
##  8 89          -113.     28.0 8    
##  9 159         -113.     27.5 9    
## 10 SFr         -113.     27.4 10   
## # … with 29 more rows
```

---

# Deleting Content

.pull-left[
Individual values in a column can be deleted by assigning it `NA`, a missing value.  The *Recycle Rule* we saw above, will repeat the `NA` throughout the whole column.

```r
samples$ID <- NA 
samples 
```

```
## # A tibble: 39 × 4
##    Stratum Longitude Latitude ID   
##    <chr>       <dbl>    <dbl> <lgl>
##  1 88          -114.     29.3 NA   
##  2 9           -114.     29.0 NA   
##  3 84          -114.     29.0 NA   
##  4 175         -113.     28.7 NA   
##  5 177         -114.     28.7 NA   
##  6 173         -113.     28.4 NA   
##  7 171         -113.     28.2 NA   
##  8 89          -113.     28.0 NA   
##  9 159         -113.     27.5 NA   
## 10 SFr         -113.     27.4 NA   
## # … with 29 more rows
```
]

.pull-right[

To entirely delete the column, instead of just assigning all the elemnets to be missing, can be accomplished by setting the whole column equal to `NULL`

```r
samples$ID <- NULL 
samples 
```

```
## # A tibble: 39 × 3
##    Stratum Longitude Latitude
##    <chr>       <dbl>    <dbl>
##  1 88          -114.     29.3
##  2 9           -114.     29.0
##  3 84          -114.     29.0
##  4 175         -113.     28.7
##  5 177         -114.     28.7
##  6 173         -113.     28.4
##  7 171         -113.     28.2
##  8 89          -113.     28.0
##  9 159         -113.     27.5
## 10 SFr         -113.     27.4
## # … with 29 more rows
```
…
```r
names(samples)
```

```
## [1] "Stratum"   "Longitude" "Latitude"
```

```r
names( samples )[1] <- "Population Name"
samples 
```

```
## # A tibble: 38 × 3
##    `Population Name` Longitude Latitude
##    <chr>                 <dbl>    <dbl>
##  1 88                    -114.     29.3
##  2 9                     -114.     29.0
##  3 84                    -114.     29.0
##  4 175                   -113.     28.7
##  5 177                   -114.     28.7
##  6 173                   -113.     28.4
##  7 171                   -113.     28.2
##  8 89                    -113.     28.0
##  9 159                   -113.     27.5
## 10 SFr                   -113.     27.4
## # … with 28 more rows
```
…
