Workflow Judo🥋
…
---

# Hours & Minutes

```r
test <- df1[ df1$Weekday == "Monday",]
test$hour <- hour( test$Date ) 
test$minute <- minute( test$Date )
test
```

```
## # A tibble: 96 x 6
##    Date                Weekday AirTemp   PAR  hour minute
##    <dttm>              <ord>     <dbl> <dbl> <int>  <int>
##  1 2014-02-03 00:00:00 Monday     9.24 0.007     0      0
##  2 2014-02-03 00:15:00 Monday     8.04 0.01      0     15
##  3 2014-02-03 00:30:00 Monday     6.78 0         0     30
##  4 2014-02-03 00:45:00 Monday     7.05 0.007     0     45
##  5 2014-02-03 01:00:00 Monday     7.4  0.029     1      0
##  6 2014-02-03 01:15:00 Monday     7.74 0.013     1     15
##  7 2014-02-03 01:30:00 Monday     7.84 0.003     1     30
##  8 2014-02-03 01:45:00 Monday     9.15 0.01      1     45
##  9 2014-02-03 02:00:00 Monday     9.93 0.052     2      0
## 10 2014-02-03 02:15:00 Monday     9.63 0.01      2     15
## # … with 86 more rows
```
…
