Introduction
…
# Now All the Moms

```r
dogwoods %>%
  st_buffer( dist=100 ) -> moms
moms
```

```
## Simple feature collection with 59 features and 1 field
## Geometry type: POLYGON
## Dimension:     XY
## Bounding box:  xmin: 169107.9 ymin: 151831.4 xmax: 182062 ymax: 170254
## Projected CRS: NAD83 / Virginia Lambert
## # A tibble: 59 x 2
##    Mother                                                               geometry
##  * <chr>                                                           <POLYGON [m]>
##  1 1024PWP ((169307.9 152006.7, 169307.8 152001.5, 169307.4 151996.3, 169306.7 …
##  2 1026PWP ((169539.4 151931.4, 169539.3 151926.2, 169538.9 151920.9, 169538.2 …
##  3 1033PWP ((174265.6 156888.5, 174265.4 156883.3, 174265 156878.1, 174264.3 15…
##  4 1037PWP ((174392.3 156421.4, 174392.2 156416.2, 174391.7 156410.9, 174391.1 …
##  5 1038PWP ((174376.9 156375.5, 174376.8 156370.2, 174376.3 156365, 174375.7 15…
##  6 1039PWP ((174465.6 156218.8, 174465.5 156213.6, 174465 156208.4, 174464.4 15…
##  7 1040PWP ((174430.3 156062.5, 174430.2 156057.2, 174429.8 156052, 174429.1 15…
##  8 1041PWP ((174380.3 155946.7, 174380.2 155941.5, 174379.8 155936.3, 174379.1 …
##  9 1042PWP ((174380.6 155596.7, 174380.5 155591.4, 174380.1 155586.2, 174379.4 …
## 10 1043PWP ((174121.1 155730.2, 174121 155725, 174120.6 155719.8, 174119.9 1557…
## # … with 49 more rows
```
…
`lsm_{l|p|c}_metric()`

where `{l|p|c}` is one of `l`, `p`, or `c` and the metric is the name as shown above.  So, for example, if we are looking at the area of each patch in the landscape we would use the function

--

.pull-left[

```r
lsm_p_area( land_2016 ) 
```

```
## # A tibble: 193 x 6
##    layer level class    id metric value
##    <int> <chr> <int> <int> <chr>  <dbl>
##  1     1 patch    11     1 area   70.4 
##  2     1 patch    11     2 area    0.18
##  3     1 patch    11     3 area    0.18
##  4     1 patch    11     4 area    0.18
##  5     1 patch    11     5 area    1.17
##  6     1 patch    11     6 area    0.18
##  7     1 patch    11     7 area    0.18
##  8     1 patch    11     8 area    0.36
##  9     1 patch    11     9 area    0.27
## 10     1 patch    11    10 area    1.08
## # … with 183 more rows
```
…
