The Title
…
Let's look at `select()` as a function.

```r
?select
```

In the next set of examples, I'm just going to dump the output to show you but in reality we'd probably either plot it, make a table, or assign it to a new variable for subsequent analysis.

```r
select( field_data, Fdt_Sta_Id, Fdt_Temp_Celcius)
```

```
## # A tibble: 116 × 2
##    Fdt_Sta_Id  Fdt_Temp_Celcius
##    <chr>                  <dbl>
##  1 7ACHE055.97             28.9
##  2 7ACHE040.39             29.4
##  3 7ACHE040.39             29.3
##  4 7ACHE040.39             29.3
##  5 7ACHE040.39             29.3
##  6 7ACHE040.39             29.2
##  7 7ACHE040.39             29.2
##  8 7ACHE040.39             28.8
##  9 7ACHE040.39             28.4
## 10 7ACHE040.39             28.4
## # … with 106 more rows
```

---

# Piping to Select

The `%>%` (yes that is percent-greater than-percent) is the pipe operator that can chain together many operations.

```r
field_data %>% select( Fdt_Sta_Id, Fdt_Temp_Celcius )
```

```
## # A tibble: 116 × 2
##    Fdt_Sta_Id  Fdt_Temp_Celcius
##    <chr>                  <dbl>
##  1 7ACHE055.97             28.9
##  2 7ACHE040.39             29.4
##  3 7ACHE040.39             29.3
##  4 7ACHE040.39             29.3
##  5 7ACHE040.39             29.3
##  6 7ACHE040.39             29.2
##  7 7ACHE040.39             29.2
##  8 7ACHE040.39             28.8
##  9 7ACHE040.39             28.4
## 10 7ACHE040.39             28.4
## # … with 106 more rows
```
…
---

# Example - Arrange Temperature Descenting 

RStudio will automatically indent subsequent lines for you as a visual reminder that you are continuing on the same analysis pipeline.

```r
field_data %>%
  arrange( -Fdt_Temp_Celcius) 
```

```
## # A tibble: 116 × 7
##     Fdt_Id Fdt_Sta_Id  Fdt_Date_Time   Fdt_Depth Fdt_Salinity Fdt_Temp_Celcius
##      <dbl> <chr>       <chr>               <dbl>        <dbl>            <dbl>
##  1 2966258 7ACHE055.97 8/12/2020 13:00       5           17.8             29.9
##  2 2966242 7ACHE055.97 8/12/2020 13:00       0.1         17.6             29.9
##  3 2966245 7ACHE055.97 8/12/2020 13:00       0.5         17.6             29.8
##  4 2965635 7ACHE044.14 8/11/2020 15:30       0.1         16.6             29.6
##  5 2965643 7ACHE044.14 8/11/2020 15:30       2           16.6             29.6
##  6 2966246 7ACHE055.97 8/12/2020 13:00       1           17.7             29.6
##  7 2965646 7ACHE044.14 8/11/2020 15:30       3           16.6             29.6
##  8 2965704 7ACHE047.42 8/11/2020 14:45       0.1         16.9             29.4
##  9 2965707 7ACHE047.42 8/11/2020 14:45       0.5         16.9             29.4
## 10 2965699 7ACHE040.39 8/11/2020 13:30       9.5         18.8             29.4
## # … with 106 more rows, and 1 more variable: Fdt_Do_Optical <dbl>
```
…
