The Title
…
```
## ── Column specification ────────────────────────────────────────────────────────
## Delimiter: ","
## chr  (2): Styles, Yeast
## dbl (10): ABV_Min, ABV_Max, IBU_Min, IBU_Max, SRM_Min, SRM_Max, OG_Min, OG_M...
```

```
## 
## ℹ Use `spec()` to retrieve the full column specification for this data.
## ℹ Specify the column types or set `show_col_types = FALSE` to quiet this message.
```

```
## # A tibble: 100 × 12
##    Styles    Yeast ABV_Min ABV_Max IBU_Min IBU_Max SRM_Min SRM_Max OG_Min OG_Max
##    <chr>     <chr>   <dbl>   <dbl>   <dbl>   <dbl>   <dbl>   <dbl>  <dbl>  <dbl>
##  1 American… Lager     2.8     4.2       8      12     2         3   1.03   1.04
##  2 American… Lager     4.2     5.3       8      18     2         4   1.04   1.05
##  3 Cream Ale Ale       4.2     5.6       8      20     2.5       5   1.04   1.06
##  4 American… Eith…     4       5.5      15      30     3         6   1.04   1.06
##  5 Internat… Eith…     4.6     6        18      25     2         6   1.04   1.05
##  6 Internat… Lager     4.6     6         8      25     7        14   1.04   1.06
##  7 Internat… Lager     4.2     6         8      20    14        22   1.04   1.06
##  8 Czech Pa… Lager     3       4.1      20      35     3         6   1.03   1.04
##  9 Czech Pr… Lager     4.2     5.8      30      45     3.5       6   1.04   1.06
## 10 Czech Am… Lager     4.4     5.8      20      35    10        16   1.04   1.06
## # … with 90 more rows, and 2 more variables: FG_Min <dbl>, FG_Max <dbl>
```
…
