The Title
…
As I understand it, the .red[7ACHE] means Chesapeake Bay (of course) and the remaining values in the station name (e.g., .red[004.29]) represent the distance in miles along the main channel from the mouth.  In this case, the foresight of the data providers allow you to order the stations by river location as they sort alphanumerially.

---

# `arrange` works on ordered factors too

```r
field_data %>%
  mutate( Station = factor( Fdt_Sta_Id, ordered=TRUE) ) %>% 
  select( Station , Depth = Fdt_Depth ) %>%
  arrange( Station ) 
```

```
## # A tibble: 116 × 2
##    Station     Depth
##    <ord>       <dbl>
##  1 7ACHE004.29   1  
##  2 7ACHE004.29   2  
##  3 7ACHE004.29   3  
##  4 7ACHE004.29   4  
##  5 7ACHE004.29   5  
##  6 7ACHE004.29   0.1
##  7 7ACHE004.29   0.5
##  8 7ACHE004.29   6  
##  9 7ACHE004.29   7  
## 10 7ACHE013.48   0.1
## # … with 106 more rows
```
…
