Habitat Analysis
…
`lsm_{l|p|c}_metric()`

where `{l|p|c}` is one of `l`, `p`, or `c` and the metric is the name as shown above.  So, for example, if we are looking at the area of each patch in the landscape we would use the function

--

.pull-left[

```r
lsm_p_area( land_2016 ) 
```

```
## # A tibble: 193 x 6
##    layer level class    id metric value
##    <int> <chr> <int> <int> <chr>  <dbl>
##  1     1 patch    11     1 area   70.4 
##  2     1 patch    11     2 area    0.18
##  3     1 patch    11     3 area    0.18
##  4     1 patch    11     4 area    0.18
##  5     1 patch    11     5 area    1.17
##  6     1 patch    11     6 area    0.18
##  7     1 patch    11     7 area    0.18
##  8     1 patch    11     8 area    0.36
##  9     1 patch    11     9 area    0.27
## 10     1 patch    11    10 area    1.08
## # … with 183 more rows
```
…
